; Engine configuration file.
; It's best edited using the editor UI and not directly,
; since the parameters that go here are not all obvious.
;
; Format:
;   [section] ; section goes between []
;   param=value ; assign values to parameters

config_version=4

_global_script_classes=[  ]
_global_script_class_icons={

}

[application]

config/name="GreatNauts"
run/main_scene="res://Home/Home.tscn"
config/icon="res://icon.png"

[autoload]

Profile="*res://Profile.gd"

[display]

window/size/width=640
window/size/height=360
window/size/test_width=1280
window/size/test_height=720
window/stretch/mode="2d"
window/stretch/aspect="keep"

[layer_names]

2d_render/layer_1="world"
2d_render/layer_2="players"

[rendering]

environment/default_environment="res://default_env.tres"
