[gd_scene load_steps=2 format=2]

[ext_resource path="res://Home/Home.gd" type="Script" id=1]

[node name="Home" type="Control"]
anchor_right = 1.0
anchor_bottom = 1.0
margin_top = 0.370636
margin_bottom = 0.370636
script = ExtResource( 1 )
__meta__ = {
"_edit_use_anchors_": false
}

[node name="VSplitContainer" type="VSplitContainer" parent="."]
margin_left = 140.051
margin_top = 4.79492
margin_right = 313.051
margin_bottom = 50.7949
dragger_visibility = 1
__meta__ = {
"_edit_use_anchors_": false
}

[node name="Label" type="Label" parent="VSplitContainer"]
margin_right = 173.0
margin_bottom = 14.0
text = "Name"
__meta__ = {
"_edit_use_anchors_": false
}

[node name="HBoxContainer" type="HBoxContainer" parent="VSplitContainer"]
margin_top = 26.0
margin_right = 173.0
margin_bottom = 46.0

[node name="playerName" type="TextEdit" parent="VSplitContainer/HBoxContainer"]
margin_right = 111.0
margin_bottom = 20.0
size_flags_horizontal = 3
__meta__ = {
"_edit_use_anchors_": false
}

[node name="updateNameButton" type="Button" parent="VSplitContainer/HBoxContainer"]
margin_left = 115.0
margin_right = 173.0
margin_bottom = 20.0
text = "Update"

[node name="statusLabel" type="Label" parent="."]
margin_left = 2.0
margin_top = 111.565
margin_right = 323.0
margin_bottom = 125.565
text = "Status"
__meta__ = {
"_edit_use_anchors_": false
}

[node name="HBoxContainer" type="HBoxContainer" parent="."]
margin_left = 4.31645
margin_top = 142.451
margin_right = 319.316
margin_bottom = 176.451
alignment = 2
__meta__ = {
"_edit_use_anchors_": false
}

[node name="remoteAddress" type="TextEdit" parent="HBoxContainer"]
margin_right = 246.0
margin_bottom = 34.0
size_flags_horizontal = 3
text = "localhost"

[node name="connectButton" type="Button" parent="HBoxContainer"]
margin_left = 250.0
margin_right = 314.0
margin_bottom = 34.0
text = "Connect"
__meta__ = {
"_edit_use_anchors_": false
}
